Portfolio 2
…
library(tidyr)
library(readxl)
file_path <- "2025-10-14_IN1_DRL20_D10.xlsx"
raw_data <- read_excel(file_path, col_names = FALSE)

## New names:
## • `` -> `...1`
## • `` -> `...2`
## • `` -> `...3`
## • `` -> `...4`
## • `` -> `...5`

print(raw_data)

## # A tibble: 95 × 5
##     ...1   ...2  ...3  ...4  ...5
##    <dbl>  <dbl> <dbl> <dbl> <dbl>
##  1    0   200      5     0   251 
##  2    8     0      0     0     0 
##  3    0    26.3  208.  231.  956.
##  4 1405. 1453.  1455. 1631. 1651.
##  5 1741. 2056.  2140. 2142. 2698.
##  6 3714. 3779.  4119. 4139. 4448.
##  7 4810. 4899.  4929. 4952. 5033.
##  8 5065. 5104.  5133. 5158. 5197.
##  9 5203. 5386.  5471. 5594. 5617.
## 10 5624. 5739.  6824. 8146. 8583.
## # ℹ 85 more rows
…
